{
  "name": "udprotean",
  "url" : "https://gitlab.com/haath/udprotean",
  "license": "MIT",
  "tags": [ "udp", "multiplayer", "udprotean", "reliable", "inorder", "networking" ],
  "description": "A UDP-based protocol for multiplayer games, with reliable in-order message delivery.",
  "version": "0.0.0",
  "classPath": "src",
  "releasenote": "Added keep-alive pings and disconnecting of idle clients.",
  "contributors": [ "Haath" ],
  "dependencies": {
  }
}
